[start]
20180109	1100	20300101	0	60700	999999	0	0	0	1	0	0	0	0	10000	0	0	0	0	0	0	0	0	0	
20160101	0	20300101	0	50700	999999	0	0	1	1	0	150	0	0	0	0	7500	0	2000	0	500	0	0	0	ここでしか手に入らないキャラクターが必ず出現！しかもレアキャラ以上確定!!
20180101	0	20300101	0	80200	999999	0	0	2	3	33	30	0	0	0	0	7500	0	2000	0	500	0	0	0		23	30	0	0	0	0	7500	0	2000	0	500	0	0	0		0	30	0	0	0	0	7500	0	2000	0	500	0	0	0	
20180101	0	20300101	0	80200	999999	0	0	3	3	33	75	0	0	0	0	7500	0	2000	0	500	0	0	0		23	75	0	0	0	0	7500	0	2000	0	500	0	0	0		0	75	0	0	0	0	7500	0	2000	0	500	0	0	0	
20191116	1100	20191201	2359	81005	999999	0	0	0	4	-1	0	0	0	0	0	0	0	0	0	0	0	0	0		-1	0	0	0	0	0	0	0	0	0	0	0	0	0		-1	0	0	0	0	0	0	0	0	0	0	0	0	0		34	0	300	0	0	0	5100	0	3500	0	1400	0	0	0	【期間限定】ネコビタンとXPが手に入る特別仕様ガチャ！★12月1日まで！
20191122	1100	20191202	1100	90000	999999	0	0	0	2	-1	0	0	0	0	0	0	0	0	0	0	0	0	0		3	0	300	0	400	0	2000	0	7000	0	600	0	0	0	高確率でマタタビが手に入るイベント限定特別ガチャ！　12月2日11時まで！
20191126	1100	20191129	1100	90000	999999	0	0	1	1	466	150	0	0	0	0	6970	0	2500	0	500	0	30	0	7周年記念！感謝の気持ちを込めた特別セレクションガチャ！★詳細はバナーをタップ!!
20191126	1100	20191129	1100	90000	999999	0	0	1	2	-1	0	0	0	0	0	0	0	0	0	0	0	0	0		430	150	0	0	0	0	6970	0	2500	0	500	0	30	0	英雄令嬢メルシュ参戦！パワフルでキュートな電脳少女達！★詳細はバナーをタップ!!
20191129	1100	20191202	1100	90000	999999	0	0	1	1	469	150	0	0	0	0	6500	0	2600	0	900	0	0	0	強力な限定キャラ「幼傑ダルターニャ」も参戦！★超激レア出現率が今だけ超アップ!!
20191112	1100	20300101	0	90000	999999	0	0	1	4	-1	0	0	0	0	0	0	0	0	0	0	0	0	0		-1	0	0	0	0	0	0	0	0	0	0	0	0	0		-1	0	0	0	0	0	0	0	0	0	0	0	0	0		471	0	0	0	0	0	0	0	0	0	10000	0	0	0	超激レアのキャラクターが必ず１体手に入る「プラチナガチャ」！
20191202	1100	20191213	1100	90100	999999	0	0	0	2	-1	0	0	0	0	0	0	0	0	0	0	0	0	0		5	0	0	2	500	0	7000	0	2000	0	500	0	0	0	高確率でキャッツアイが手に入るイベント限定特別ガチャ！　12月13日11時まで！
20191202	1100	20191205	1100	90100	999999	0	0	1	1	467	150	0	0	0	0	6970	0	2500	0	500	0	30	0	7周年記念！感謝の気持ちを込めた特別セレクションガチャ！★詳細はバナーをタップ!!
20191202	1100	20191205	1100	90100	999999	0	0	1	2	-1	0	0	0	0	0	0	0	0	0	0	0	0	0		442	150	0	0	0	0	6970	0	2500	0	500	0	30	0	にゃんこワールドの偉大なる神々！シークレット新参戦！？★詳細はバナーをタップ!!
20191205	1100	20191209	1100	90100	999999	0	0	1	1	461	150	0	0	0	0	7000	0	2500	0	500	0	0	0	黒ちびネコヴァルキリー参戦！7周年記念の特別ガチャ！★詳細はバナーをタップ!!
20191205	1100	20191209	1100	90100	999999	0	0	1	2	-1	0	0	0	0	0	0	0	0	0	0	0	0	0		448	150	0	0	0	0	6970	0	2500	0	500	0	30	0	個性的で愉快な精霊を仲間にしよう！シークレット新参戦！？★詳細はバナーをタップ!!
20191209	1100	20191213	1100	90100	999999	0	0	1	1	475	150	0	0	0	0	6970	0	2500	0	500	1	30	0	きんたろう参戦！にゃんこワールド最大級の仰天進化！★詳細はバナーをタップ!!
20191209	1100	20300101	000	90100	999999	0	0	1	4	-1	0	0	0	0	0	0	0	0	0	0	0	0	0		-1	0	0	0	0	0	0	0	0	0	0	0	0	0		-1	0	0	0	0	0	0	0	0	0	0	0	0	0		480	0	0	0	0	0	0	0	0	0	10000	0	0	0	超激レアのキャラクターが必ず１体手に入る「プラチナガチャ」！
[end]
