[start]
20180109	1100	20300101	0	60700	999999	0	0	0	1	0	0	0	0	10000	0	0	0	0	0	0	0	0	0	
20160101	0	20300101	0	50700	999999	0	0	1	1	0	150	0	0	0	0	7500	0	2000	0	500	0	0	0	ここでしか手に入らないキャラクターが必ず出現！しかもレアキャラ以上確定!!
20180101	0	20300101	0	80200	999999	0	0	2	3	33	30	0	0	0	0	7500	0	2000	0	500	0	0	0		23	30	0	0	0	0	7500	0	2000	0	500	0	0	0		0	30	0	0	0	0	7500	0	2000	0	500	0	0	0	
20180101	0	20300101	0	80200	999999	0	0	3	3	33	75	0	0	0	0	7500	0	2000	0	500	0	0	0		23	75	0	0	0	0	7500	0	2000	0	500	0	0	0		0	75	0	0	0	0	7500	0	2000	0	500	0	0	0	
20200501	1100	20300101	000	90500	999999	0	0	1	4	-1	0	0	0	0	0	0	0	0	0	0	0	0	0		-1	0	0	0	0	0	0	0	0	0	0	0	0	0		-1	0	0	0	0	0	0	0	0	0	0	0	0	0		510	0	0	0	0	0	0	0	0	0	10000	0	0	0	超激レアのキャラクターが必ず１体手に入る「プラチナガチャ」！
20200613	1100	20300101	000	90600	999999	0	0	1	4	-1	0	0	0	0	0	0	0	0	0	0	0	0	0		-1	0	0	0	0	0	0	0	0	0	0	0	0	0		-1	0	0	0	0	0	0	0	0	0	0	0	0	0		522	0	0	0	0	0	0	0	0	0	10000	0	0	0	超激レアのキャラクターが必ず１体手に入る「プラチナガチャ」！
20200708	1100	20200710	1100	90700	999999	0	0	1	1	519	150	0	0	0	0	6970	0	2500	0	500	0	30	0	新キャラ「オイルガ」参戦！謎だらけのキモかわ生命体！★詳細はバナーをタップ!!
20200710	1100	20200713	1100	90700	999999	0	0	1	1	523	150	0	4	0	0	7000	0	2500	0	500	0	0	0	波動に強いキャラが揃った「波動バスターズ」新登場！★おまけアップイベント開催中!!
20200710	1100	20300101	000	90700	999999	0	0	1	4	-1	0	0	0	0	0	0	0	0	0	0	0	0	0		-1	0	0	0	0	0	0	0	0	0	0	0	0	0		-1	0	0	0	0	0	0	0	0	0	0	0	0	0		525	0	0	0	0	0	0	0	0	0	10000	0	0	0	超激レアのキャラクターが必ず１体手に入る「プラチナガチャ」！
20200713	1100	20200727	2359	90700	999999	0	0	4	1	13	0	0	0	3000	0	2500	0	1300	0	2500	1	700	1	【期間限定】ビックリマンチョコで回せるコラボ限定ガチャ！★7月27日まで！	イベントガチャをあと	回ガチャれば限定キャラクターが必ず出現!!
20200716	1100	20200801	2359	90700	999999	0	0	0	4	-1	0	0	0	0	0	0	0	0	0	0	0	0	0		-1	0	0	0	0	0	0	0	0	0	0	0	0	0		-1	0	0	0	0	0	0	0	0	0	0	0	0	0		46	0	300	0	0	0	5100	0	3500	0	1400	0	0	0	【期間限定】ネコビタンとXPが手に入る特別仕様ガチャ！★8月1日まで！
20200713	1100	20200727	1100	90700	999999	0	0	1	1	524	150	0	6616	0	0	6970	0	2500	0	500	0	30	0	悪魔VS天使！新キャラ入り『ビックリマン』コラボガチャ！★詳細はバナーをタップ!!
20200713	1100	20200715	1100	90700	999999	0	0	1	2	-1	0	0	0	0	0	0	0	0	0	0	0	0	0		497	150	0	6616	0	0	6970	0	2500	0	500	0	30	0	冥界神ハデス参戦！にゃんこワールドの偉大なる神々！★詳細はバナーをタップ!!
20200715	1100	20200717	1100	90700	999999	0	0	1	2	-1	0	0	0	0	0	0	0	0	0	0	0	0	0		448	150	0	6616	0	0	6970	0	2500	0	500	0	30	0	個性的で愉快な精霊を仲間にしよう！シークレット新参戦！？★詳細はバナーをタップ!!
20200717	1100	20200720	1100	90700	999999	0	0	1	1	521	150	0	6616	0	0	6500	0	2600	0	900	0	0	0	限定キャラ「禍根の魔女キャスリィ」新たに参戦！★超激レア出現率が今だけ超アップ!!
20200717	1100	20200727	1100	90700	999999	0	0	1	2	-1	0	0	0	0	0	0	0	0	0	0	0	0	0		524	150	0	6616	0	0	6970	0	2500	0	500	0	30	0	悪魔VS天使！新キャラ入り『ビックリマン』コラボガチャ！★詳細はバナーをタップ!!
20200720	1100	20200727	1100	90700	999999	0	0	1	1	524	150	0	6616	0	0	6970	0	2500	0	500	0	30	0	悪魔VS天使！新キャラ入り『ビックリマン』コラボガチャ！★詳細はバナーをタップ!!
20200720	1100	20200722	1100	90700	999999	0	0	1	2	-1	0	0	0	0	0	0	0	0	0	0	0	0	0		427	150	0	6616	0	0	6970	0	2500	0	500	0	30	0	黒い敵相手に大暴れ！強力な効果を持つ戦国武将達！★詳細はバナーをタップ!!
[end]
